<?xml version="1.0" standalone="no"?>
<!DOCTYPE svg PUBLIC "-//W3C//DTD SVG 20010904//EN"
 "http://www.w3.org/TR/2001/REC-SVG-20010904/DTD/svg10.dtd">
<svg version="1.0" xmlns="http://www.w3.org/2000/svg"
 width="480.000000pt" height="480.000000pt" viewBox="0 0 480.000000 480.000000"
 preserveAspectRatio="xMidYMid meet">
<metadata>
Created by potrace 1.11, written by Peter Selinger 2001-2013
</metadata>
<g transform="translate(0.000000,480.000000) scale(0.100000,-0.100000)"
fill="#000000" stroke="none">
<path d="M2160 4769 c-436 -44 -897 -233 -1245 -509 -559 -446 -895 -1144
-895 -1860 0 -716 336 -1414 895 -1860 477 -380 1107 -568 1706 -510 827 80
1550 581 1915 1325 324 662 324 1428 0 2090 -235 481 -610 855 -1091 1091
-393 193 -852 276 -1285 233z m420 -40 c477 -59 898 -349 1121 -773 121 -230
170 -426 170 -687 1 -250 -49 -455 -162 -678 -203 -399 -594 -691 -1038 -775
-46 -9 -97 -16 -115 -15 -26 0 -23 3 24 18 204 65 357 228 410 437 69 267 -64
560 -309 682 -116 59 -208 76 -351 69 -588 -32 -1080 -385 -1304 -936 -66
-163 -97 -333 -97 -536 0 -245 41 -425 145 -640 121 -249 284 -437 511 -589
146 -99 362 -188 523 -216 112 -20 77 -24 -49 -5 -927 136 -1692 823 -1924
1729 -56 219 -70 332 -70 586 0 254 14 367 70 586 75 293 204 564 385 806 323
434 778 741 1294 873 118 30 280 58 391 68 93 8 297 6 375 -4z m-53 -1774
c227 -53 402 -243 435 -472 45 -311 -170 -600 -479 -645 -395 -57 -729 304
-638 689 49 207 218 378 423 428 76 18 183 18 259 0z"/>
</g>
</svg>
